SAP1 - Projeto de um processador simples/simulation/qsim/SAP1.msim.vcd
$comment
	File created using the following command:
		vcd file SAP1.msim.vcd -direction
$end
$date
	Tue Apr 13 22:56:23 2021
$end
$version
	ModelSim Version 2020.1
$end
$timescale
	1ps
$end

$scope module sap1_vhd_vec_tst $end
$var wire 1 ! CK $end
$var wire 1 " DISP0 [7] $end
$var wire 1 # DISP0 [6] $end
$var wire 1 $ DISP0 [5] $end
$var wire 1 % DISP0 [4] $end
$var wire 1 & DISP0 [3] $end
$var wire 1 ' DISP0 [2] $end
$var wire 1 ( DISP0 [1] $end
$var wire 1 ) DISP0 [0] $end
$var wire 1 * DISP1 [7] $end
$var wire 1 + DISP1 [6] $end
$var wire 1 , DISP1 [5] $end
$var wire 1 - DISP1 [4] $end
$var wire 1 . DISP1 [3] $end
$var wire 1 / DISP1 [2] $end
$var wire 1 0 DISP1 [1] $end
$var wire 1 1 DISP1 [0] $end
$var wire 1 2 MR $end

$scope module i1 $end
$var wire 1 3 gnd $end
$var wire 1 4 vcc $end
$var wire 1 5 unknown $end
$var wire 1 6 devoe $end
$var wire 1 7 devclrn $end
$var wire 1 8 devpor $end
$var wire 1 9 ww_devoe $end
$var wire 1 : ww_devclrn $end
$var wire 1 ; ww_devpor $end
$var wire 1 < ww_CK $end
$var wire 1 = ww_MR $end
$var wire 1 > ww_DISP0 [7] $end
$var wire 1 ? ww_DISP0 [6] $end
$var wire 1 @ ww_DISP0 [5] $end
$var wire 1 A ww_DISP0 [4] $end
$var wire 1 B ww_DISP0 [3] $end
$var wire 1 C ww_DISP0 [2] $end
$var wire 1 D ww_DISP0 [1] $end
$var wire 1 E ww_DISP0 [0] $end
$var wire 1 F ww_DISP1 [7] $end
$var wire 1 G ww_DISP1 [6] $end
$var wire 1 H ww_DISP1 [5] $end
$var wire 1 I ww_DISP1 [4] $end
$var wire 1 J ww_DISP1 [3] $end
$var wire 1 K ww_DISP1 [2] $end
$var wire 1 L ww_DISP1 [1] $end
$var wire 1 M ww_DISP1 [0] $end
$var wire 1 N \MR~inputclkctrl_INCLK_bus\ [3] $end
$var wire 1 O \MR~inputclkctrl_INCLK_bus\ [2] $end
$var wire 1 P \MR~inputclkctrl_INCLK_bus\ [1] $end
$var wire 1 Q \MR~inputclkctrl_INCLK_bus\ [0] $end
$var wire 1 R \CK~inputclkctrl_INCLK_bus\ [3] $end
$var wire 1 S \CK~inputclkctrl_INCLK_bus\ [2] $end
$var wire 1 T \CK~inputclkctrl_INCLK_bus\ [1] $end
$var wire 1 U \CK~inputclkctrl_INCLK_bus\ [0] $end
$var wire 1 V \DISP0[0]~output_o\ $end
$var wire 1 W \DISP0[1]~output_o\ $end
$var wire 1 X \DISP0[2]~output_o\ $end
$var wire 1 Y \DISP0[3]~output_o\ $end
$var wire 1 Z \DISP0[4]~output_o\ $end
$var wire 1 [ \DISP0[5]~output_o\ $end
$var wire 1 \ \DISP0[6]~output_o\ $end
$var wire 1 ] \DISP0[7]~output_o\ $end
$var wire 1 ^ \DISP1[0]~output_o\ $end
$var wire 1 _ \DISP1[1]~output_o\ $end
$var wire 1 ` \DISP1[2]~output_o\ $end
$var wire 1 a \DISP1[3]~output_o\ $end
$var wire 1 b \DISP1[4]~output_o\ $end
$var wire 1 c \DISP1[5]~output_o\ $end
$var wire 1 d \DISP1[6]~output_o\ $end
$var wire 1 e \DISP1[7]~output_o\ $end
$var wire 1 f \CK~input_o\ $end
$var wire 1 g \CK~inputclkctrl_outclk\ $end
$var wire 1 h \acc|DATA_OUT[4]~feeder_combout\ $end
$var wire 1 i \MR~input_o\ $end
$var wire 1 j \MR~inputclkctrl_outclk\ $end
$var wire 1 k \cu|cnt[0]~2_combout\ $end
$var wire 1 l \cu|cnt[2]~1_combout\ $end
$var wire 1 m \cu|Equal0~0_combout\ $end
$var wire 1 n \cu|cnt[1]~0_combout\ $end
$var wire 1 o \cu|Mux4~1_combout\ $end
$var wire 1 p \cu|Mux6~0_combout\ $end
$var wire 1 q \reg_b|DATA_OUT[4]~feeder_combout\ $end
$var wire 1 r \cu|Mux8~0_combout\ $end
$var wire 1 s \multiplex_bar|main_bus[0]~49_combout\ $end
$var wire 1 t \multiplex_bar|main_bus[2]~21_combout\ $end
$var wire 1 u \cu|Mux4~0_combout\ $end
$var wire 1 v \multiplex_bar|main_bus[2]~20_combout\ $end
$var wire 1 w \cu|Mux11~0_combout\ $end
$var wire 1 x \cu|Mux11~1_combout\ $end
$var wire 1 y \multiplex_bar|main_bus[1]~15_combout\ $end
$var wire 1 z \multiplex_bar|main_bus[1]~16_combout\ $end
$var wire 1 { \multiplex_bar|main_bus[0]~9_combout\ $end
$var wire 1 | \multiplex_bar|main_bus[0]~8_combout\ $end
$var wire 1 } \ula|Add0~0_combout\ $end
$var wire 1 ~ \ula|Add1~0_combout\ $end
$var wire 1 !! \PC|cnt~2_combout\ $end
$var wire 1 "! \cu|Equal0~1_combout\ $end
$var wire 1 #! \cu|Mux3~0_combout\ $end
$var wire 1 $! \cu|Mux2~0_combout\ $end
$var wire 1 %! \memory|Mux6~0_combout\ $end
$var wire 1 &! \multiplex_bar|main_bus[3]~10_combout\ $end
$var wire 1 '! \cu|Mux10~0_combout\ $end
$var wire 1 (! \cu|Mux10~1_combout\ $end
$var wire 1 )! \multiplex_bar|main_bus[3]~48_combout\ $end
$var wire 1 *! \multiplex_bar|main_bus[3]~11_combout\ $end
$var wire 1 +! \multiplex_bar|main_bus[3]~47_combout\ $end
$var wire 1 ,! \multiplex_bar|main_bus[0]~12_combout\ $end
$var wire 1 -! \multiplex_bar|main_bus[0]~13_combout\ $end
$var wire 1 .! \multiplex_bar|main_bus[0]~14_combout\ $end
$var wire 1 /! \ula|Add0~1\ $end
$var wire 1 0! \ula|Add0~2_combout\ $end
$var wire 1 1! \ula|Add1~1\ $end
$var wire 1 2! \ula|Add1~2_combout\ $end
$var wire 1 3! \PC|cnt~3_combout\ $end
$var wire 1 4! \memory|Mux5~0_combout\ $end
$var wire 1 5! \multiplex_bar|main_bus[1]~17_combout\ $end
$var wire 1 6! \multiplex_bar|main_bus[1]~18_combout\ $end
$var wire 1 7! \multiplex_bar|main_bus[1]~19_combout\ $end
$var wire 1 8! \ula|Add0~3\ $end
$var wire 1 9! \ula|Add0~4_combout\ $end
$var wire 1 :! \ula|Add1~3\ $end
$var wire 1 ;! \ula|Add1~4_combout\ $end
$var wire 1 <! \memory|Mux4~0_combout\ $end
$var wire 1 =! \PC|cnt~5_combout\ $end
$var wire 1 >! \multiplex_bar|main_bus[2]~22_combout\ $end
$var wire 1 ?! \multiplex_bar|main_bus[2]~23_combout\ $end
$var wire 1 @! \multiplex_bar|main_bus[2]~24_combout\ $end
$var wire 1 A! \ula|Add0~5\ $end
$var wire 1 B! \ula|Add0~7\ $end
$var wire 1 C! \ula|Add0~9\ $end
$var wire 1 D! \ula|Add0~10_combout\ $end
$var wire 1 E! \ula|Add1~5\ $end
$var wire 1 F! \ula|Add1~7\ $end
$var wire 1 G! \ula|Add1~9\ $end
$var wire 1 H! \ula|Add1~10_combout\ $end
$var wire 1 I! \cu|Mux5~0_combout\ $end
$var wire 1 J! \multiplex_bar|main_bus[6]~30_combout\ $end
$var wire 1 K! \multiplex_bar|main_bus[5]~36_combout\ $end
$var wire 1 L! \multiplex_bar|main_bus[5]~37_combout\ $end
$var wire 1 M! \multiplex_bar|main_bus[5]~38_combout\ $end
$var wire 1 N! \multiplex_bar|main_bus[5]~39_combout\ $end
$var wire 1 O! \multiplex_bar|main_bus[5]~40_combout\ $end
$var wire 1 P! \cu|Mux9~0_combout\ $end
$var wire 1 Q! \cu|Mux9~1_combout\ $end
$var wire 1 R! \ula|Add1~8_combout\ $end
$var wire 1 S! \ula|Add0~8_combout\ $end
$var wire 1 T! \memory|Mux2~0_combout\ $end
$var wire 1 U! \multiplex_bar|main_bus[6]~32_combout\ $end
$var wire 1 V! \multiplex_bar|main_bus[6]~31_combout\ $end
$var wire 1 W! \multiplex_bar|main_bus[4]~33_combout\ $end
$var wire 1 X! \multiplex_bar|main_bus[4]~34_combout\ $end
$var wire 1 Y! \multiplex_bar|main_bus[4]~35_combout\ $end
$var wire 1 Z! \cu|Mux8~1_combout\ $end
$var wire 1 [! \ula|Add1~11\ $end
$var wire 1 \! \ula|Add1~12_combout\ $end
$var wire 1 ]! \ula|Add0~11\ $end
$var wire 1 ^! \ula|Add0~12_combout\ $end
$var wire 1 _! \memory|Mux0~0_combout\ $end
$var wire 1 `! \multiplex_bar|main_bus[6]~41_combout\ $end
$var wire 1 a! \multiplex_bar|main_bus[6]~42_combout\ $end
$var wire 1 b! \multiplex_bar|main_bus[6]~43_combout\ $end
$var wire 1 c! \cu|Mux5~1_combout\ $end
$var wire 1 d! \multiplex_bar|main_bus[3]~25_combout\ $end
$var wire 1 e! \multiplex_bar|main_bus[3]~26_combout\ $end
$var wire 1 f! \ula|Add0~6_combout\ $end
$var wire 1 g! \ula|Add1~6_combout\ $end
$var wire 1 h! \memory|Mux3~0_combout\ $end
$var wire 1 i! \PC|Add0~0_combout\ $end
$var wire 1 j! \PC|cnt~4_combout\ $end
$var wire 1 k! \multiplex_bar|main_bus[3]~27_combout\ $end
$var wire 1 l! \multiplex_bar|main_bus[3]~28_combout\ $end
$var wire 1 m! \multiplex_bar|main_bus[3]~29_combout\ $end
$var wire 1 n! \out_reg|DATA_OUT[1]~feeder_combout\ $end
$var wire 1 o! \out_reg|DATA_OUT[2]~feeder_combout\ $end
$var wire 1 p! \out_reg|Mux13~0_combout\ $end
$var wire 1 q! \out_reg|Mux12~0_combout\ $end
$var wire 1 r! \out_reg|Mux11~0_combout\ $end
$var wire 1 s! \out_reg|Mux10~0_combout\ $end
$var wire 1 t! \out_reg|Mux9~0_combout\ $end
$var wire 1 u! \out_reg|Mux8~0_combout\ $end
$var wire 1 v! \out_reg|Mux7~0_combout\ $end
$var wire 1 w! \multiplex_bar|main_bus[7]~44_combout\ $end
$var wire 1 x! \ula|Add1~13\ $end
$var wire 1 y! \ula|Add1~14_combout\ $end
$var wire 1 z! \ula|Add0~13\ $end
$var wire 1 {! \ula|Add0~14_combout\ $end
$var wire 1 |! \multiplex_bar|main_bus[7]~45_combout\ $end
$var wire 1 }! \multiplex_bar|main_bus[7]~46_combout\ $end
$var wire 1 ~! \out_reg|Mux6~0_combout\ $end
$var wire 1 !" \out_reg|Mux5~0_combout\ $end
$var wire 1 "" \out_reg|Mux4~0_combout\ $end
$var wire 1 #" \out_reg|Mux3~0_combout\ $end
$var wire 1 $" \out_reg|Mux2~0_combout\ $end
$var wire 1 %" \out_reg|Mux1~0_combout\ $end
$var wire 1 &" \out_reg|Mux0~0_combout\ $end
$var wire 1 '" \out_reg|DATA_OUT\ [7] $end
$var wire 1 (" \out_reg|DATA_OUT\ [6] $end
$var wire 1 )" \out_reg|DATA_OUT\ [5] $end
$var wire 1 *" \out_reg|DATA_OUT\ [4] $end
$var wire 1 +" \out_reg|DATA_OUT\ [3] $end
$var wire 1 ," \out_reg|DATA_OUT\ [2] $end
$var wire 1 -" \out_reg|DATA_OUT\ [1] $end
$var wire 1 ." \out_reg|DATA_OUT\ [0] $end
$var wire 1 /" \ir|DATA_OUT\ [7] $end
$var wire 1 0" \ir|DATA_OUT\ [6] $end
$var wire 1 1" \ir|DATA_OUT\ [5] $end
$var wire 1 2" \ir|DATA_OUT\ [4] $end
$var wire 1 3" \ir|DATA_OUT\ [3] $end
$var wire 1 4" \ir|DATA_OUT\ [2] $end
$var wire 1 5" \ir|DATA_OUT\ [1] $end
$var wire 1 6" \ir|DATA_OUT\ [0] $end
$var wire 1 7" \cu|cnt\ [2] $end
$var wire 1 8" \cu|cnt\ [1] $end
$var wire 1 9" \cu|cnt\ [0] $end
$var wire 1 :" \PC|cnt\ [3] $end
$var wire 1 ;" \PC|cnt\ [2] $end
$var wire 1 <" \PC|cnt\ [1] $end
$var wire 1 =" \PC|cnt\ [0] $end
$var wire 1 >" \acc|DATA_OUT\ [7] $end
$var wire 1 ?" \acc|DATA_OUT\ [6] $end
$var wire 1 @" \acc|DATA_OUT\ [5] $end
$var wire 1 A" \acc|DATA_OUT\ [4] $end
$var wire 1 B" \acc|DATA_OUT\ [3] $end
$var wire 1 C" \acc|DATA_OUT\ [2] $end
$var wire 1 D" \acc|DATA_OUT\ [1] $end
$var wire 1 E" \acc|DATA_OUT\ [0] $end
$var wire 1 F" \reg_b|DATA_OUT\ [7] $end
$var wire 1 G" \reg_b|DATA_OUT\ [6] $end
$var wire 1 H" \reg_b|DATA_OUT\ [5] $end
$var wire 1 I" \reg_b|DATA_OUT\ [4] $end
$var wire 1 J" \reg_b|DATA_OUT\ [3] $end
$var wire 1 K" \reg_b|DATA_OUT\ [2] $end
$var wire 1 L" \reg_b|DATA_OUT\ [1] $end
$var wire 1 M" \reg_b|DATA_OUT\ [0] $end
$var wire 1 N" \mar|DATA_OUT\ [3] $end
$var wire 1 O" \mar|DATA_OUT\ [2] $end
$var wire 1 P" \mar|DATA_OUT\ [1] $end
$var wire 1 Q" \mar|DATA_OUT\ [0] $end
$var wire 1 R" \ALT_INV_CK~inputclkctrl_outclk\ $end
$var wire 1 S" \cu|ALT_INV_Equal0~0_combout\ $end
$var wire 1 T" \out_reg|ALT_INV_Mux1~0_combout\ $end
$var wire 1 U" \out_reg|ALT_INV_Mux2~0_combout\ $end
$var wire 1 V" \out_reg|ALT_INV_Mux3~0_combout\ $end
$var wire 1 W" \out_reg|ALT_INV_Mux4~0_combout\ $end
$var wire 1 X" \out_reg|ALT_INV_Mux5~0_combout\ $end
$var wire 1 Y" \out_reg|ALT_INV_Mux6~0_combout\ $end
$var wire 1 Z" \out_reg|ALT_INV_Mux8~0_combout\ $end
$var wire 1 [" \out_reg|ALT_INV_Mux9~0_combout\ $end
$var wire 1 \" \out_reg|ALT_INV_Mux10~0_combout\ $end
$var wire 1 ]" \out_reg|ALT_INV_Mux11~0_combout\ $end
$var wire 1 ^" \out_reg|ALT_INV_Mux12~0_combout\ $end
$var wire 1 _" \out_reg|ALT_INV_Mux13~0_combout\ $end
$upscope $end
$upscope $end
$enddefinitions $end
#0
$dumpvars
0!
12
03
14
x5
16
17
18
19
1:
1;
0<
1=
1V
1W
1X
1Y
1Z
1[
0\
0]
1^
1_
1`
1a
1b
1c
0d
0e
0f
0g
0h
1i
1j
1k
0l
0m
0n
0o
0p
0q
0r
1s
0t
0u
0v
0w
0x
0y
0z
0{
0|
0}
0~
1!!
0"!
0#!
1$!
0%!
1&!
0'!
1(!
1)!
0*!
1+!
0,!
0-!
0.!
0/!
00!
11!
02!
03!
04!
05!
06!
07!
18!
09!
0:!
0;!
0<!
0=!
0>!
0?!
0@!
0A!
1B!
0C!
0D!
1E!
0F!
1G!
0H!
0I!
0J!
0K!
0L!
0M!
0N!
0O!
0P!
0Q!
0R!
0S!
0T!
0U!
0V!
0W!
0X!
0Y!
0Z!
0[!
0\!
1]!
0^!
0_!
0`!
0a!
0b!
0c!
0d!
0e!
0f!
0g!
0h!
0i!
0j!
0k!
0l!
0m!
0n!
0o!
0p!
0q!
0r!
0s!
0t!
0u!
0v!
0w!
1x!
0y!
0z!
0{!
0|!
0}!
0~!
0!"
0""
0#"
0$"
0%"
0&"
1R"
1S"
1T"
1U"
1V"
1W"
1X"
1Y"
1Z"
1["
1\"
1]"
1^"
1_"
0"
0#
1$
1%
1&
1'
1(
1)
0*
0+
1,
1-
1.
1/
10
11
0>
0?
1@
1A
1B
1C
1D
1E
0F
0G
1H
1I
1J
1K
1L
1M
0'"
0("
0)"
0*"
0+"
0,"
0-"
0."
0/"
00"
01"
02"
03"
04"
05"
06"
07"
08"
09"
0:"
0;"
0<"
0="
0>"
0?"
0@"
0A"
0B"
0C"
0D"
0E"
0F"
0G"
0H"
0I"
0J"
0K"
0L"
0M"
0N"
0O"
0P"
0Q"
1R
1S
1T
0U
1N
1O
1P
1Q
$end
#5000
1!
1<
1f
1U
1g
0R"
#10000
0!
0<
0f
0U
0g
1R"
19"
0k
1n
1o
1u
1"!
0$!
0&!
1*!
1V!
0)!
1k!
1W!
1X!
1l!
1m!
1Y!
1h
1q
#15000
1!
1<
1f
1U
1g
0R"
12"
13"
#20000
0!
0<
0f
0U
0g
1R"
09"
18"
1="
13!
1k
0o
0u
0!!
0"!
1$!
0*!
1I!
1c!
0+!
0V!
0W!
0k!
0s
1U!
1V!
1d!
1W!
0l!
0X!
0Y!
1X!
1Y!
0h
0q
1h
1q
#25000
1!
1<
1f
1U
1g
0R"
1N"
1%!
1T!
1h!
#30000
0!
0<
0f
0U
0g
1R"
19"
0k
1l
0n
1o
0$!
1'!
1*!
0I!
1P!
1Q!
0c!
1+!
1,!
1s
0U!
0d!
0W!
0m!
1-!
1.!
0X!
0Y!
0h
0q
#35000
1!
1<
1f
1U
1g
0R"
1E"
1}
1~
#40000
0!
0<
0f
0U
0g
1R"
17"
09"
08"
1k
0o
0*!
0P!
0Q!
0+!
0V!
0,!
0-!
0.!
#45000
1!
1<
1f
1U
1g
0R"
#50000
0!
0<
0f
0U
0g
1R"
19"
0k
1m
1n
1"!
0'!
0S"
03!
07"
09"
0N"
0%!
0T!
0h!
1k
0n
0"!
0l
0m
1$!
1&!
1S"
1)!
1+!
13!
1,!
1-!
1.!
#55000
1!
1<
1f
1U
1g
0R"
1Q"
1K!
1_!
1h!
#60000
0!
0<
0f
0U
0g
1R"
19"
0k
1n
1o
1u
1"!
0$!
0&!
1*!
1L!
1V!
0)!
0,!
1W!
1`!
1M!
1N!
1a!
1X!
0-!
0.!
1Y!
1b!
1O!
1h
1q
#65000
1!
1<
1f
1U
1g
0R"
11"
10"
03"
#70000
0!
0<
0f
0U
0g
1R"
09"
18"
0="
1<"
1#!
1k
0o
1r
0u
1!!
0"!
1$!
0*!
1I!
0+!
0L!
0V!
0s
1{
1Z!
0$!
0O!
0Y!
0b!
1.!
0W!
0`!
0M!
0N!
0a!
0X!
0h
0q
#75000
1!
1<
1f
1U
1g
0R"
1."
1p!
1s!
1t!
1u!
0Z"
0["
0\"
0_"
0V
0Y
0Z
0[
0E
0B
0A
0@
0)
0&
0%
0$
#80000
0!
0<
0f
0U
0g
1R"
19"
0k
1l
0n
1o
0r
1'!
0I!
1s
0{
0Z!
0.!
#85000
1!
1<
1f
1U
1g
0R"
#90000
0!
0<
0f
0U
0g
1R"
17"
09"
08"
0#!
1k
0o
1w
#95000
1!
1<
1f
1U
1g
0R"
#100000
0!
0<
0f
0U
0g
1R"
19"
0k
1m
1n
0w
0!!
1"!
0'!
0S"
03!
07"
09"
0Q"
0K!
0_!
0h!
1k
0n
0"!
0l
0m
1!!
1$!
1&!
1S"
1)!
1+!
13!
15!
16!
17!
1n!
#105000
1!
1<
1f
1U
1g
0R"
1P"
1%!
1K!
1T!
#110000
0!
0<
0f
0U
0g
1R"
19"
0k
1n
1o
1u
1"!
0$!
0&!
1*!
1L!
1V!
0)!
1,!
05!
1k!
1M!
1N!
1l!
06!
1-!
1.!
07!
1m!
1O!
0n!
#115000
1!
1<
1f
1U
1g
0R"
16"
02"
00"
13"
#120000
0!
0<
0f
0U
0g
1R"
09"
18"
1="
03!
1=!
1i!
1p
1k
0o
0u
0!!
0"!
1$!
0*!
1I!
1c!
0+!
0L!
0V!
0p
0,!
0k!
0s
1|
1L!
0M!
1U!
1V!
1d!
0N!
1M!
0l!
0-!
1N!
0O!
1O!
#125000
1!
1<
1f
1U
1g
0R"
1Q"
1N"
0P"
0%!
14!
0K!
1h!
#130000
0!
0<
0f
0U
0g
1R"
19"
0k
1l
0n
1o
0$!
1*!
0I!
0c!
1+!
1p
15!
1s
0|
0L!
0U!
0d!
0M!
0.!
0m!
16!
17!
0N!
0O!
1n!
#135000
1!
1<
1f
1U
1g
0R"
1L"
10!
12!
1:!
1;!
0E!
1g!
1F!
1R!
0G!
1H!
1[!
1\!
0x!
1y!
#140000
0!
0<
0f
0U
0g
1R"
17"
09"
08"
0p
1k
0o
1w
0*!
0V!
1x
1)!
0+!
1J!
1Q!
1M!
1N!
1U!
1X!
1a!
1,!
1>!
1k!
1-!
1?!
1l!
1m!
1@!
1.!
0l!
0?!
1b!
1Y!
1W!
1`!
1O!
0N!
0O!
0a!
0X!
1h
1q
0@!
0m!
1o!
0o!
0Y!
0b!
0h
0q
#145000
1!
1<
1f
1U
1g
0R"
1D"
00!
08!
02!
0:!
0;!
1E!
19!
06!
07!
0g!
0F!
1?!
1@!
0R!
1G!
0n!
0H!
0[!
1o!
0\!
1x!
0y!
#150000
0!
0<
0f
0U
0g
1R"
19"
0k
1m
1n
0w
1"!
0S"
0x
0)!
0J!
0Q!
0=!
07"
09"
0Q"
0N"
0M!
1N!
0U!
1X!
1a!
0,!
05!
0>!
0k!
16!
1l!
04!
0T!
0h!
1k
0n
0"!
0l
0m
1$!
1&!
1m!
17!
0l!
0?!
06!
0-!
1b!
1Y!
0W!
0`!
1O!
0N!
1S"
1)!
1+!
1=!
0O!
0a!
0X!
1h
1q
0.!
07!
0@!
0m!
1n!
1,!
15!
0o!
0n!
0Y!
0b!
16!
1-!
0h
0q
1.!
17!
1n!
#155000
1!
1<
1f
1U
1g
0R"
1Q"
1P"
1K!
1_!
1h!
#160000
0!
0<
0f
0U
0g
1R"
19"
0k
1n
1o
1u
1"!
0$!
0&!
1*!
1L!
1V!
0)!
0,!
05!
1W!
1`!
1M!
1N!
1a!
1X!
06!
0-!
0.!
07!
1Y!
1b!
1O!
1h
1q
0n!
#165000
1!
1<
1f
1U
1g
0R"
06"
12"
10"
03"
#170000
0!
0<
0f
0U
0g
1R"
09"
18"
0="
0<"
1;"
1j!
0i!
1#!
1k
0o
1r
0u
1!!
0"!
1$!
0*!
1I!
0+!
0L!
0V!
0s
1z
1{
1Z!
0$!
0j!
0O!
0Y!
0b!
1.!
17!
0W!
0`!
0M!
0N!
0a!
0X!
1n!
0h
0q
#175000
1!
1<
1f
1U
1g
0R"
1-"
0p!
0s!
1v!
1\"
1_"
1\
1V
1Y
1?
1E
1B
1#
1)
1&
#180000
0!
0<
0f
0U
0g
1R"
19"
0k
1l
0n
1o
0r
1'!
0I!
1s
0z
0{
0Z!
0.!
07!
0n!
#185000
1!
1<
1f
1U
1g
0R"
#190000
0!
0<
0f
0U
0g
1R"
17"
09"
08"
0#!
1k
0o
1w
#195000
1!
1<
1f
1U
1g
0R"
#200000
0!
0<
0f
0U
0g
1R"
19"
0k
1m
1n
0w
0!!
1"!
0'!
0S"
0=!
07"
09"
0Q"
0P"
0K!
0_!
0h!
1k
0n
0"!
0l
0m
1!!
1$!
1&!
1S"
1)!
1+!
1=!
1>!
1?!
1@!
1o!
#205000
1!
1<
1f
1U
1g
0R"
1O"
14!
1K!
1T!
#210000
0!
0<
0f
0U
0g
1R"
19"
0k
1n
1o
1u
1"!
0$!
0&!
1*!
1L!
1V!
0)!
15!
0>!
1k!
1M!
1N!
1l!
0?!
16!
17!
0@!
1m!
1O!
0o!
1n!
#215000
1!
1<
1f
1U
1g
0R"
15"
02"
00"
13"
#220000
0!
0<
0f
0U
0g
1R"
09"
18"
1="
13!
1p
1k
0o
0u
0!!
0"!
1$!
0*!
1I!
1c!
0+!
0L!
0V!
0p
05!
0k!
0s
1y
1L!
0M!
1U!
1V!
1d!
0N!
1M!
0l!
06!
1N!
0O!
1O!
#225000
1!
1<
1f
1U
1g
0R"
1N"
0O"
1P"
1%!
0K!
1h!
#230000
0!
0<
0f
0U
0g
1R"
19"
0k
1l
0n
1o
0$!
1*!
0I!
0c!
1+!
1p
1,!
15!
1s
0y
0L!
0U!
0d!
0M!
07!
0m!
16!
1-!
1.!
17!
0n!
0N!
0O!
1n!
#235000
1!
1<
1f
1U
1g
0R"
1M"
0}
1/!
0~
10!
#240000
0!
0<
0f
0U
0g
1R"
17"
09"
08"
0p
1k
0o
1w
0*!
0V!
1x
1)!
0+!
1J!
1Q!
1M!
1U!
1>!
1k!
0-!
0.!
1?!
1W!
1`!
1@!
1o!
#245000
1!
1<
1f
1U
1g
0R"
1C"
0E"
1}
0/!
1~
01!
09!
1A!
1;!
1f!
0?!
12!
1:!
00!
1-!
1.!
0;!
06!
0@!
1l!
1m!
0o!
07!
0n!
#250000
0!
0<
0f
0U
0g
1R"
19"
0k
1m
1n
0w
1"!
0S"
0x
0)!
0J!
0Q!
03!
0=!
07"
09"
0N"
0P"
0M!
1N!
0U!
1X!
1a!
0,!
05!
0>!
0k!
16!
1?!
0%!
04!
0T!
0h!
1k
0n
0"!
0l
0m
1$!
1&!
1@!
17!
0l!
0?!
06!
0-!
1b!
1Y!
0W!
0`!
1O!
0N!
1S"
1)!
1+!
13!
1=!
0O!
0a!
0X!
1h
1q
0.!
07!
0@!
0m!
1n!
1o!
1,!
1>!
0o!
0n!
0Y!
0b!
1?!
1-!
0h
0q
1.!
1@!
1o!
#255000
1!
1<
1f
1U
1g
0R"
1Q"
1O"
1K!
1_!
1h!
#260000
0!
0<
0f
0U
0g
1R"
19"
0k
1n
1o
1u
1"!
0$!
0&!
1*!
1L!
1V!
0)!
0,!
0>!
1W!
1`!
1M!
1N!
1a!
1X!
0?!
0-!
0.!
0@!
1Y!
1b!
1O!
1h
1q
0o!
#265000
1!
1<
1f
1U
1g
0R"
05"
12"
10"
03"
#270000
0!
0<
0f
0U
0g
1R"
09"
18"
0="
1<"
1#!
1k
0o
1r
0u
1!!
0"!
1$!
0*!
1I!
0+!
0L!
0V!
0s
1t
1z
1Z!
0$!
0O!
0Y!
0b!
17!
1@!
0W!
0`!
0M!
0N!
0a!
0X!
1o!
1n!
0h
0q
#275000
1!
1<
1f
1U
1g
0R"
1,"
0."
1q!
0t!
0u!
1Z"
1["
0^"
0W
1Z
1[
0D
1A
1@
0(
1%
1$
#280000
0!
0<
0f
0U
0g
1R"
19"
0k
1l
0n
1o
0r
1'!
0I!
1s
0t
0z
0Z!
07!
0@!
0o!
0n!
#285000
1!
1<
1f
1U
1g
0R"
#290000
0!
0<
0f
0U
0g
1R"
17"
09"
08"
0#!
1k
0o
1w
#295000
1!
1<
1f
1U
1g
0R"
#300000
0!
0<
0f
0U
0g
1R"
19"
0k
1m
1n
0w
0!!
1"!
0'!
0S"
03!
0=!
07"
09"
0Q"
0O"
0K!
0_!
0h!
1k
0n
0"!
0l
0m
1!!
1$!
1&!
1S"
1)!
1+!
13!
1=!
15!
1>!
1?!
16!
17!
1@!
1o!
1n!
#305000
1!
1<
1f
1U
1g
0R"
1O"
1P"
1K!
#310000
0!
0<
0f
0U
0g
1R"
19"
0k
1n
1o
1u
1"!
0$!
0&!
1*!
1L!
1V!
0)!
05!
0>!
1k!
1W!
1M!
1N!
1X!
1l!
0?!
06!
07!
0@!
1m!
1Y!
1O!
1h
1q
0o!
0n!
#315000
1!
1<
1f
1U
1g
0R"
00"
13"
#320000
0!
0<
0f
0U
0g
1R"
09"
18"
1="
03!
0=!
1i!
1p
1k
0o
0u
0!!
0"!
1$!
0*!
1I!
1c!
0+!
0L!
0V!
0p
1j!
0W!
0k!
0s
1L!
0M!
1U!
1V!
1d!
1W!
0N!
1M!
0l!
0X!
0Y!
1N!
0O!
1X!
1Y!
1O!
0h
0q
1h
1q
#325000
1!
1<
1f
1U
1g
0R"
1N"
0O"
0P"
1%!
0K!
1T!
1h!
#330000
0!
0<
0f
0U
0g
1R"
19"
0k
1l
0n
1o
0$!
1'!
1*!
0I!
0c!
1+!
0(!
1p
1,!
1s
0L!
0U!
0d!
0W!
0M!
0m!
1-!
1.!
0N!
0X!
0Y!
0O!
0h
0q
#335000
1!
1<
1f
1U
1g
0R"
0L"
10!
18!
02!
0:!
1;!
19!
0A!
0f!
#340000
0!
0<
0f
0U
0g
1R"
17"
09"
08"
0p
1k
0o
1w
0*!
0V!
1x
0+!
1J!
1Q!
0,!
1?!
1@!
1o!
#345000
1!
1<
1f
1U
1g
0R"
0D"
1E"
0}
1/!
0~
11!
00!
12!
1:!
0;!
16!
02!
0:!
10!
0-!
0.!
1;!
06!
17!
0?!
0@!
1n!
07!
1?!
1@!
0n!
0o!
1o!
#350000
0!
0<
0f
0U
0g
1R"
19"
0k
1m
1n
0w
1"!
0'!
0S"
1(!
0x
0J!
0Q!
0j!
07"
09"
0N"
0?!
0%!
0T!
0h!
1k
0n
0"!
0l
0m
1$!
1&!
0@!
1S"
1)!
1+!
1j!
0o!
1,!
15!
1>!
1?!
16!
1-!
1.!
17!
1@!
1o!
1n!
#355000
1!
1<
1f
1U
1g
0R"
1Q"
1O"
1P"
1K!
1_!
1h!
#360000
0!
0<
0f
0U
0g
1R"
19"
0k
1n
1o
1u
1"!
0$!
0&!
1*!
1L!
1V!
0)!
0,!
05!
0>!
1W!
1`!
1M!
1N!
1a!
1X!
0?!
06!
0-!
0.!
07!
0@!
1Y!
1b!
1O!
1h
1q
0o!
0n!
#365000
1!
1<
1f
1U
1g
0R"
10"
03"
#370000
0!
0<
0f
0U
0g
1R"
09"
18"
0="
0<"
0;"
1:"
0i!
1#!
1k
0o
1r
0u
1!!
0"!
1$!
0*!
1I!
0+!
0L!
0V!
0s
1t
1{
1Z!
0$!
0O!
0Y!
0b!
1.!
1@!
0W!
0`!
0M!
0N!
0a!
0X!
1o!
0h
0q
#375000
1!
1<
1f
1U
1g
0R"
0-"
1."
1t!
0["
0Z
0A
0%
#380000
0!
0<
0f
0U
0g
1R"
19"
0k
1l
0n
1o
0r
1'!
0I!
1s
0t
0{
0Z!
0.!
0@!
0o!
#385000
1!
1<
1f
1U
1g
0R"
#390000
0!
0<
0f
0U
0g
1R"
17"
09"
08"
0#!
1k
0o
1w
#395000
1!
1<
1f
1U
1g
0R"
